%YAML 1.1
%TAG !u! tag:unity3d.com,2011:
--- !u!114 &11400000
MonoBehaviour:
  m_ObjectHideFlags: 0
  m_CorrespondingSourceObject: {fileID: 0}
  m_PrefabInstance: {fileID: 0}
  m_PrefabAsset: {fileID: 0}
  m_GameObject: {fileID: 0}
  m_Enabled: 1
  m_EditorHideFlags: 0
  m_Script: {fileID: 11500000, guid: b740a484ed7c6da4c98e2d145bebad74, type: 3}
  m_Name: Food2
  m_EditorClassIdentifier: 
  itemName: Food2
  icon: {fileID: 21300000, guid: 345479546d74ffc48994c153372c5679, type: 3}
  isDefaultItem: 0
